0b3d21c7-c13f-4ee8-8d9d-4f334754c7e4
37d2a614-7e44-4eda-b215-8ec2a3741c52
431c501b-4abd-4642-9f0b-991b9d4dbb97
03dbfb30-39d5-4181-9f4e-fce92b5ff28c
12132022-dc23-4ea8-bf5b-38f6c58042db
49633db0-9955-4b2e-8c40-63b6c2081c39
41791677-b4a9-436f-999e-b8864c987b3b
656ffb5a-fc68-425e-82bb-c9b4b6d0a723
1a7c6608-8e3b-413a-917b-4f3fda75cd62
43376c4f-0258-407d-b7d9-f9b60ba36911
c5331896-d0d1-4323-a739-49751da044aa
8afde0b8-d47e-439c-a50d-6fe79de79d7f
9bafcd63-bdbe-4f26-ae08-05a031ea7491
05abdc15-af8f-4c64-aa6c-6ca0bb8d1d8a
4385a98a-ed91-493a-ac8c-55e2a0a7c4a2
bdfcd7c2-7376-49bf-934e-7eafb579afb5
e1dcf692-330d-46d3-8add-a241b388fbe2
d9385d27-daa7-4d47-a685-1fb41949a85e
095b4041-431c-4824-b11b-01b075bb036f
5ceecbdf-83e1-49ea-af7a-d527590a37b2
9ee3f630-3895-45fa-81c0-cb837d204df0
cca55e65-81f2-4bc8-b7b7-6e544530494d
8485ac65-dbdb-4ab0-9620-dbba376595a9
e1fe111f-6e23-454e-bc64-2a37ced1e0c3
051a2bff-7d25-4292-a10d-93dfcd965740
08b558b2-61a4-43f0-a0df-a9906093a816
d76163c3-b525-4283-97b7-324e5b6848bf
e319cd36-20a4-4971-8b47-5bbf4c8da56e
730e8532-6c03-426c-aaaa-593694129304
37c8dd80-594c-40ce-8049-ac8228ff2ae5
6a21e4f1-dc72-43ea-be30-b5e29fdb7417
0c356ff9-182c-4ac2-8dba-3cbc413ceb76
05c936e4-d868-451e-8487-9f54e4335c6b
9ee3349c-c1f4-4640-bb53-c55d6bbd9196
0724d057-1168-4966-b57b-79cccd6e1a9b
7c59b0ae-29e0-4c39-ba87-ed95d99dac5d
7d9fbcdb-731d-4e52-9e9b-23c220e7ee9e
825c6a4d-4f56-4453-8432-e5af92353490
3f7dcf0b-79b1-40ba-bedd-3fba60a86bff
441f1fbd-fa3a-41c5-98cb-636cc5e3effe
311a8577-dc10-42c1-8269-08f7d8a4ff91
f86af48f-c387-4b88-be2f-ebf06759f0c8
fe38d1fd-276c-4a97-be80-7e05bc3b826e
846c2359-9385-431b-872e-b396c6d69a13
b4035820-ad5e-479e-a54f-72212eaaf076
bb9f1e2a-7db5-4caf-b6bd-a91411b18c80
0d74ef59-d9f3-4eae-9343-fc9eff585545
fe238d48-9c42-4702-b40a-e4d393e55dd0
b6b2c0ec-a930-49a7-8f4d-595d0e542d3c
8195c9c3-19f0-4be8-be9e-20c607d6745e
4917b83f-614a-4110-b651-a34b7cc3d3f1
0838d8a9-6fe6-404d-b26d-3ead22e80c44
7c0f155f-19a7-4e4a-859f-01d0ae5475c1
e119f605-26f4-49a0-9310-0ac168e82bfa
b01cadeb-3232-423e-8681-d01eb61bf4d6
862a26b4-fd3e-493a-9e00-4bc0629a297c
ed240c4f-ecd2-4d6a-85b2-097a7d86192f
0093cdf6-6529-4074-a72d-03d9f2af7cab
0d442a49-8e56-40b5-ac7a-d2a03cb7d5fe
2f4e0205-3ffb-463b-b6c1-10e60a7febd0
6ab9bd65-41aa-4e7a-81e7-af1440917655
b05d51ad-6533-4840-b7ca-56692bea0775
e07d24dd-93e4-42f9-9b7e-0e47c7f395e9
073e8f94-20b5-41f0-95a6-be023c2ec4e7
6177aaff-116c-448c-ba76-4ed39260ea13
67980a72-49f5-4c18-a830-c0a50e09f53d
b212224f-da25-40fe-b0c2-4aa5f76f5d31
30b3c6dc-0b49-4d60-99c2-c4d8c53569cb
c7eb45f8-706d-422f-b012-08147f63f023
fbb86f22-f150-4459-bf88-ccd4dba14137
d7faf5e6-0172-44f2-9214-aff9ac810760
13097fdd-a479-480d-8f36-f679eb394f57
26b013e8-cfd8-4f19-99c7-cf0aab887224
7607bfbb-ceab-4832-849f-2ee7f1ea9f42
a66ff9e8-621c-4abb-9dec-3e0f461ee83f
c30db47c-0c39-43ed-9eca-b0ebed83dc3d
d72e94a2-e5ef-43a0-883a-5407136e4529
bad95c4c-0889-4f86-8688-62665f9bab92
a5d3cd22-8998-46d4-8e8b-ddf5c9a33b3a
d3d3eb7a-252e-47b8-9792-2ecdbfa06449
eba16d50-c33e-4696-9e33-dab7fd16e974
1aaa9592-6cdf-49c3-b4ff-21c7910d0db1
6b82cc6c-162c-4568-97bc-86ed6db81607
71a06f54-a1cd-4bfd-a3d1-e48d221f3db0
aaae3763-337d-4eef-87d1-1f7e8dbc87ab
2e2d7113-81b3-4f7f-b932-9298929b34a3
452e8f30-7e6c-4638-8316-c7f45a102212
79590da7-5c8d-4a20-b6dc-0dd94192a40d
ae0051d7-5ede-47c7-9894-81bcff9e6c2d
fa2c23d2-338c-4fc4-8669-344c3b8695dc
fa2d6b37-b7d5-4d5c-b314-fe8589fe6923
558fadcf-8941-4631-9b8f-1ffe3fa42c90
7b0d19c6-1128-4ef9-9b24-30f615657d99
48ad7059-cf8a-4ec9-bd1c-1cee448075f7
ed3e5532-960f-4314-91b8-9391bdcbcba8
287edb2a-a306-4dcd-9228-5b825a928c49
40e419b4-832a-45ae-be75-2cd767267b94
3ef1a300-b783-4929-96ab-9a08028b1889
8f3056f1-ef0e-4b66-8aed-339158050f5c
96c8a992-88fb-4669-a327-7c4d80bfdb81
7f43df55-63f0-49c1-ac32-fa69f394156b
11a45a02-6f74-48d9-919c-61b6d8de1fb3
4890b4b3-7ca9-42d8-a368-994d56957787
8de67f77-32b4-419d-8a83-633fe9dacecc
4fc7af23-aa7f-4ca6-97d4-8651d6bb31f4
57c941c5-472a-4dfb-9970-7f6fbabc5415
c7f7e6ab-1d91-41de-b76d-49f4111cfe07
4a3a4c36-29b8-4a28-880b-80284f7e07ed
c4c4fb35-9f4f-4048-9563-88f7fd3e3e6c
f7f94965-638c-435b-a2bf-a74aff393b24
cbc959ab-8a90-4dc9-8af3-84ee98dc638b
dbc41c30-75d4-4edc-86b2-56522913f16f
70cc50a8-0a93-4bae-bae3-333a090af3ee
67f045a4-7c9e-43b8-afc7-72456493742c
b7fa38f3-b16e-49c6-91b8-de43b29cce8b
dfd15c3e-880d-4e76-86b2-26909b06fc6c
6606550d-8286-4b0e-a17d-4c9ddcd7b4e8
1ed30124-034f-4e54-b477-7fedb8b3799f
b3121834-f9b4-4817-98b0-4e44f95ab8a3
415f678a-7604-4f75-8531-3e565b94ce23
56313c2c-b952-4d84-8342-ceb5b373fc92
b852d71c-4cb6-419f-adf3-8d4ef75b8592
fde3d035-2ae1-40aa-9ea6-7e861a100d23
bc8be33c-adc2-46bb-ad39-d68b68a5cd2c
30ba5a43-9575-4844-9cb9-dcf63b1701da
5808f732-41b0-435c-8181-a494e63a3b9d
4ac82e02-1336-45a2-93e3-bc2a0f1beaea
5818669f-b201-4869-ae1c-ae52af1dc1c3
986bea44-cb23-4c94-b0f3-b9145f5effa6
a65d9bd4-56dc-41f5-afc3-73f9328d1457
31d4ff15-e519-4e38-8e65-3c1e4c6e8518
92f1a254-23e8-4579-96d0-8f00fe267f3f
cac885ad-1046-4777-8c94-3bd57a2baa2e
0b8eba4e-c4e3-4c7f-9d26-9d0aae3198ea
b9a16f95-c5c1-4213-a930-186e51b013ac
12dd2aee-dbf1-4f69-8b21-ccd23f4c3560
15150f11-b52f-495d-87af-37f547a3c516
ab0e820a-6e0d-469c-8747-ca721b20b091
90952679-7155-4c69-89bc-c5029d736a29
414ef20f-d769-4e7a-a934-ca6e91a856ef
6f2b457f-6c74-40ba-9e4b-30b6fa08cbf8
853967be-8630-4604-a6bf-c4e845930693
f6d04c7e-770d-4bc6-adfb-1360c205cb1a
02c624ac-4676-4286-b2d1-12526aa73b80
1633136f-1881-43d8-b665-0e01dbe02b1c
503e7521-1288-4615-ae21-5b99a0fb254b
8d018311-ad91-4344-8652-cccf85dc92b5
db324f4f-7d01-4fde-9c4c-0d93c6d94bb3
2232e9d4-e0cd-4077-a319-ec49ee10b630
127ba574-efca-4504-921d-f9d30aa14e82
79288bb3-2192-4ab5-a3df-ce87b3a32af7
bbec0a30-e928-4f44-876a-e73e2ed8630f
f828f2f3-6963-448b-a117-9680470ffd2c
79c60fdf-feef-4d9f-8794-8d8f00cf6a49
eaf42c47-4123-4603-bbd5-112d13770f25
b033660c-2959-4c03-82d9-eef8b6ac2a21
055cc677-2ccd-4dbf-8066-8a4744d096ee
fcdb377c-e650-40d6-a869-58d7eaac84fe
79005d50-6077-444e-947a-0afe18567cee
84809d89-e4ee-4f94-9854-98b29c130851
12891643-335e-4fb1-b89c-1066742e4473
1f33ca17-f6d4-45f3-a909-c218440c5218
38916d8e-6db4-4236-9e1c-ed2afe5a12c2
7a4bc89e-e212-4fd5-85f8-2d9739699634
c36ad80c-378d-498c-8baf-b48ef637ecb0
dbe6b44d-b1af-43a5-9058-5660d83ee4c2
16a8cb0b-af41-4923-af3d-044f717439a6
6e06a581-f322-48af-ab20-a8ad54502c00
73680447-6688-4ab2-bbd4-15a4b45d3aa8
9dbf9814-ebf3-4e30-9cf4-fd80677296fe
9ddbe39e-8b1c-4be9-bc6b-346b0bbaed9c
aadc7378-bdb6-4bcb-8cf8-054fac54c553
d106539d-8e28-4034-8486-f2b97385da0e
b58fcdad-990e-4b65-a08c-038098c708f2
221f8142-e44b-4150-a703-02ba80e0c551
5990b43d-caaa-4cf3-9450-55d1657cce54
b30e7cd6-f975-4eb9-8bfd-28cf18061d1a
d019e996-7194-4e9d-9dce-be652c0f4d00
728c1539-9a73-4357-8aa8-b00e4c20fa93
e0ffcab1-16de-4222-a043-09f8b6307b56
1234ecef-2f2c-45d4-94aa-81634728396f
c5b4ea13-90e5-48e9-9fd2-f3164c0c2e60
ce7e849f-62f0-45a6-8252-77a4c03b2bda
5a159fdf-9af1-456d-808d-7fe1499708b2
c1319b99-8c4e-4ccd-8ae1-bd45e8063186
b45653e0-6272-4969-9973-1a64b05a59d7
f10ab28e-cba3-4529-8470-e56c22b70101
11a9fb70-38b2-48f6-8e3c-b203442fcbec
c9f2501d-0e1a-4457-8fa2-c90a55114c2c
133291ed-ed93-4079-a3b6-8f9f5ade08db
e059a1b0-2687-431a-aff1-f74d01bd7806
f9ea02fb-44fb-49d7-b8b3-82f113c80647
87a30184-5616-4751-803e-b9b3f2ba73bc
bdf7eb5f-b3d8-43a6-baa7-675ed74300de
76766680-a509-40a4-a736-6eec4881b749
d5d66748-70b4-44ac-83f2-1ceba2f6d226
a5d5e78e-fd22-46cf-a951-1ce61fe08dce
a6c8fbf9-d9fa-4e10-be10-a234ebbe05d6
6e8bdc68-5029-4009-a8a3-6d178807562f
896ea05c-2038-46de-859e-b2376a4d4f60
bdcba80b-a7e4-4d30-af71-bd197379183c
29c6e7c8-4dc8-4291-9bce-112866177b11
3c3b9f55-a3b4-4253-9224-7baae8f98755
7177040e-210b-45a3-b563-a5d22b61993b
e60ef15d-0ee4-4288-b5c2-c9edeb5ceac7
875085a6-185a-49a3-b972-4d75494a67c5
3f7afcc3-9085-437c-9343-3419edebaaa6
a56d9a5d-c91e-40f2-bc88-170ef0c7380c
121d7fd9-bb74-4212-bdc1-24ab9849cacc
c277c5c6-e267-4e57-a0c7-86bef1fb59a0
d2839d0a-8539-4c0d-9300-5fe9222c6730
f0c5f727-026d-40c1-8345-8baab0e411e7
5920f740-e90e-4345-ac9b-074c43eee8ff
e60b7e1b-b0ac-4ff3-8e34-31f55e9d3196
17257f6b-3707-4f3a-a663-fe0b995dfef6
fda07644-38a0-4d93-8911-703930a7cf51
283d52de-4e52-434f-81dd-f882c8c343b8
ac15981f-93ea-41ba-b2fc-50cce15a1ba4
db9a9a56-3dcd-441c-982f-b490f68e70a9
ec9ba7dd-0d7c-4bb2-a09a-a44e9cbca834
4ff6d5da-a8af-41dc-982f-351d1e7a02be
5c3352c1-c087-47af-8162-63bdd0d30dea
9bf235af-51ee-4926-b2d7-e3f1dc51b63e
a7fdf7de-4c98-4526-b75d-fc21da4d32ac
f537ea43-6c2e-497e-9e82-6986286f42ef
9ca8ec0c-7e37-4f89-a916-f69499270ca6
ecc1e915-33a6-42dc-8753-75dfb768989d
343250e4-9e16-417a-809b-c1eb1510c634
5a48eb80-b548-4f96-864e-7daf8433cdee
6e10382e-aed8-4ba8-93ec-6770b451850c
d2c0809e-5e71-4b07-bb02-4dde06072540
f4caad19-dcaa-4c30-8e22-9afabf1456b0
f8f731fb-8f8f-447f-922a-919dc3910b42
03d8d203-1588-4bfa-94c4-114de5e6ca39
05c556e3-906b-4881-a530-a863bcd6b237
81e780ef-f6ac-43d7-b8bb-b43d03c9a658
d5c05577-60b1-4836-8caf-8f1c0833e8b0
94806ed1-e536-4893-b861-20996c74f6a8
d8ea947c-a197-4cc6-aa84-ddd2ebe48c98
eb912802-83a7-4404-ab88-cc2c25e7a468
8711d6ec-62b8-4ea4-8c1f-d223e4902da4
8532ee32-0b8d-480b-855a-fe73259835d8
35cad7ba-cd12-4061-8e00-9478f45f5161
12318679-e134-4a16-8646-1157f7b1863e
3dc351bd-1c29-4eef-95e7-5aff5a019784
27f0756d-48cd-431b-bc16-6364b8bd32e5
76140e06-d45c-4ad2-8219-e3c4f0c64101
be533fe8-24a8-4940-97aa-1bd6f0b86391
4f96296b-299e-4d08-a268-8456f65202f4
e4f09d9c-edb8-4728-b52c-94d651d09619
7455915d-e3ff-46cd-99a8-89c3aeb79192
dc932798-9a4a-4cc8-8801-b2d22c494706
c8aadc56-df44-476c-95c2-3dcb163cebc6
39566488-78cb-42de-85fb-7786c5bd652a
e6a0fe42-dd75-486e-9649-2af04b395694
058ee46c-bd7f-4892-9154-5c3e27aa9728
675ba614-27f2-4273-8a57-6f5176b77269
8e03b0dc-2e64-4689-bc03-425627421af9
c9c15d02-5cef-44be-b244-c20d8bb79acf
2f3f4ac9-cd9c-42f0-a64c-585168617a74
2fedf092-4c72-4fec-ae30-43f91985f021
2f0959df-efe6-41ce-b150-21a44803e63f
b4b25509-cb48-4971-a488-280696a04bc5
e1a5f9a1-de4b-4016-9dda-5944e38f3722
be56f2f3-95e7-4310-ac86-5e2a7548964c
14e161a2-ff9a-4d38-bf8b-1b13821a7514
44d1c72a-bedb-4269-baab-538c980c84d2
e82159fb-b679-481c-8b91-ee4dfb6da7b2
50668ff9-c152-4ddb-888d-236f4321f147
af4c69dc-69f5-4973-af3c-54ec1c790edb
35b085dd-4c79-46a3-a78b-52619b767b2c
850897c5-bd8b-4253-8d2f-9c4440faed5b
d9e3dd6d-3019-497d-909d-e19804eaad7f
b5ecdc72-5cea-4c34-9178-a7b10a8efc98
a70765e4-ba2c-44cf-9a9c-17c9455baeed
c7f74006-69d1-4a6a-b93e-c984ce5eaca9
049e7110-cc50-41d2-b19f-8c1a164f7846
c90297ab-6a60-473b-a784-e63cec813c0c
d4ed2f7f-4bdf-4776-8071-11b5b7dcfb8a
d99d0767-3f54-4280-bf87-8ebaf20eaaf7
ee2e804b-24e9-4c97-a8f2-3f82e56e5a3f
0a43eb76-ab9b-4958-b1ad-56cf476bb477
573f0765-076a-4e6a-ba69-02706e91e0af
d6764435-52c6-4835-8a64-0c75d722971e
0ffb1e5b-0d0c-40d0-bf0c-daadb99eed64
6267eac6-487a-45f6-92d5-517447713e0b
49b829bb-807b-46bf-8313-a2108036774b
7136f3fe-8c1a-412a-a378-ee0e0899b8b3
fae576a5-4f26-4f18-9377-74f22420927a
f192f6f8-04b0-4bc5-ba36-54c25010a60e
4ae10ae1-8cdd-4910-9e56-9d4ed58914b5
199e8e98-2d89-4a74-95f3-03e0ecf82026
3107e24f-d1ae-42bb-8bef-5ac32bda5763
a5eedb56-3bc6-4527-8b19-8dad88c74ccf
5bbb7d2f-758d-4642-ac5a-07cbed64077d
7642ede9-a2cd-4a1d-a58c-380c4201c216
09f1ba57-b939-466f-9459-d73cbcec173e
90e2a22d-5db8-4b40-a640-5047786afcc7
029b3fae-acbc-4127-b8a8-123146fdda66
8a8806d5-35dd-4195-ae1c-3a2250bb9f13
97300386-3f18-43a9-b46d-00ed3f06db67
b1f57780-1b7a-40c7-9e8b-ba1449bcea95
4725d720-fab1-4831-b45e-bc8c64c02e2a
0f72640b-023a-4bb0-bed7-37900be934b7
1707a5be-82f3-40f9-80f1-7611fc875b48
bfb9d535-3f5c-4258-8ccc-d0ca6b8ec1dd
22385f7e-1b23-42af-8dc7-1253a21bca95
50ecb029-9236-4c6d-9434-b58a3de86efd
f4627f6c-360e-4e30-89da-5ef5d2686982
865f5392-2aca-4691-bf06-e00e7bf43dcd
97ad28ff-1aa5-4f20-b7bc-1184f409161c
bf96294f-ff7d-47a0-91f8-3f43c21cfcd5
4280e429-9e22-4fa3-bd48-e3348af397a8
8131171c-b0bf-4ad3-8524-c2855a433821
ae4148ba-1c9f-432f-aa8c-abc3e7ba831c
08a8a2c2-a878-40f7-9e4e-b71dbd5b01ce
900338fe-ce7f-4667-b835-64b576a9113f
9ec2fcc2-ff31-4f4e-b4ef-7e09a91fb012
bfff4f67-778a-4d2f-9156-fb83f976c6ae
376ddd90-ae1c-443f-9206-0e7944467fb3
409d9673-a80b-4ba8-b8d1-732916f4540d
9b6fd67d-5e1a-4f86-90fc-384e908c5225
c442e807-2861-4851-96fa-c4b0cf5046a0
e515767d-c4c2-472d-bc7a-1697646b1420
b4ccf9e4-fd63-430a-b520-4652ca22daf3
2254b09b-515e-4462-9d6b-ad52b8d5bf64
9dbf017d-250d-4ee7-8b3b-00dfa2f9e8b7
0b0484ee-8b43-4fcb-aad3-6e3f71bea798
3b052f2f-abff-4e4a-91f2-93c441971f9f
9a712e0c-6a12-4fe7-b554-f1857d940f35
ad722d9f-1b4f-4e8f-b8ad-983a59578d4e
009a6194-3916-40b7-82ce-7574a0c69a0b
110a3f00-ab19-46bf-bc3e-47ff839bd85d
f9deb407-d171-4619-918a-4784e7a7337a
a53aed0f-f553-4b74-adc2-fef1ebea32a4
fd50d101-ca39-41e1-8bb1-cf2e65212ddd
3fc99014-28c6-4322-8b41-14a8bf7f5060
51c48fcd-1899-4525-9f39-50930e13f95f
153f2c49-6200-4cf2-9935-ae82f05c191e
a510c4ea-d6f9-4d09-9ce8-d3105f0db9f3
d2ddeb86-7348-467a-ba5e-bd8a2d5574b0
1796a8b9-f585-40dd-bc84-ea87439d9a73
b959cc3e-9d4d-4218-ad3f-0b6a3d31f6d2
ac822610-e85c-4594-b8fd-71b0d583653d
d4a1e774-9642-4fdd-883c-8e532b9ff863
0a7b3d5d-9dfd-4020-9310-92f2ae60f9c1
fbecf678-7a06-45ab-b4f6-f4cb8d21334c
cb0f41e6-51e6-486a-b257-9286d934cc90
db9ac24f-9df8-4a55-8c75-fce4f4afec48
93953b77-7646-4d94-b74f-e680157c052c
98f5f6b7-8932-4ab5-8021-a873343cff9a
db4717e6-4217-4c82-937f-afa608c197f9
6dd22b62-dfeb-4621-84a9-01422ce26390
b9b700b0-c5a0-4c24-9b23-86815a320b7a
ce83c0ba-740d-4574-a768-7f6446f8adab
66aeff80-484b-4715-8fbf-f40410617969
16d3d95b-369c-4ebd-9437-253136e00bde
27ab8ccf-d6ce-4c0b-85db-83f54a48aeca
9ef87b46-4fd7-4327-826b-357ef710b425
f0d687fd-c335-4e99-ae70-92dc259578d9
fc6a1546-40d2-42f3-b3d7-4e4ae62a6768
5683cc2c-32ea-4bca-9b63-e7738ba8bfb3
4f9b659b-3786-4cd3-bd74-d468c2d8540c
04639b94-253b-47f1-ba2c-f3c4e2e9564f
f885a006-8935-4fa5-85ee-ec8f8fd8b7f9
30dc48ce-1c98-4e0d-bb06-467e6220d0ac
ba654ac5-661a-491a-918c-b55b0d62af68
8aabfd61-f768-42cf-bd48-c040e7bad72a
3a6d48c6-8c14-4e30-a71d-258d6b69206c
7ef71572-1950-448e-8bc5-94c9df1dc870
b8a013a1-1c17-40b0-8a3e-fc47a164cad3
1f574aa7-6692-4e90-84bc-86131337f1ae
da5e28ff-0ac2-4525-bb44-f7b04af4b703
f396b70c-576c-4b87-9dd6-e1d778007970
3a9d341b-4286-41d6-9548-0783b53e27df
ef8a1b5b-ee2c-4c6d-a023-20730a82fb62
abe0b190-7829-4b6d-baa5-6b3e72e478ff
301ccce1-8787-4e51-849f-52d70a6345a9
3e621c16-6e8d-4c80-b749-60453a680e1d
5b7668be-380b-4ae2-81f7-08a72ac65d2b
b258209d-afb3-4125-9933-5708940fd9f6
e1cf04f9-22cc-4048-bc48-5cf73cd46600
56b8c71c-3775-43ae-a1d9-8005c584f886
1f015d84-2b4f-45a3-9b37-8c56c019d456
2f76db93-7823-4355-bc8d-52650a5178e7
c9030a0d-0e02-4312-ad0a-a69039b06ddf
fc9efc43-3754-4b6b-bba1-139bfa8ebf89
c4c98a76-4d0f-43e5-a145-cfe120977953
b31a3309-dfcf-453d-9fe2-0a6069859234
e80da3ee-b4cd-4541-91fd-0ed46da012a2
ee12e1a5-2118-4063-a480-036235bed4b4
803a012f-b721-4097-abb8-67baa1bf9094
085b27a1-e9ce-41b3-a8d4-a92cf9c0c222
698695e3-4285-4900-aeca-31817250523b
23d7dc66-0997-4634-a919-0dadbdfb3546
44aa726d-38bc-424e-83c3-d8103746620d
3c2948a3-695f-4a71-b566-e746b9e1178a
3332594f-b1d6-48a8-88ce-5cf3ad6f0b56
c7f7d7a5-9ced-4f0d-960f-723b8f93c9fc
f651cc84-4d29-4680-9be2-eed439c8ccab
6a30ca20-3dda-481f-abf6-7581d8d298c2
013dd2a7-fec4-4cc5-b819-f3cf16a1f820
c4fb2cf4-555c-4870-8903-cba270c911aa
b483987c-9a0f-4ff8-8c10-cbe9ab00767c
15722032-4ae0-4f61-8934-eca4e067b7b9
22a895fd-ecd0-4f23-8522-5b15edb81b32
2c7c0a9b-6ef5-431a-8d17-dffccd16d18d
7e441d79-e041-4e5e-92c5-ae04e989fe91
bd854949-da03-47eb-ab44-a339ffa32964
01a12f22-fccd-40a5-ad7c-f5748e2da003
07ed187a-2eb0-474e-b72d-36cdcffaaf32
2b8b820b-1759-468b-bf97-5509e46fba69
a5c1a468-14fa-4575-98da-7578160e1235
592cba23-1f8a-4fb5-9327-4593ee9ed0dc
4c4ae5b1-80d2-4297-895a-f0ed0d3dace4
90873616-cdb3-436e-bcaa-c7a6d3b6af9f
281fc457-2884-4a21-adf1-5a3ca56396cc
bfb58d12-d81c-4ac1-a6c0-f5650ed100f3
eb943760-3671-43ab-b578-f10b084a1a78
f04aa997-3a9d-41df-bb59-a342ae59b719
2bd2a98d-ee82-404e-9c8f-4fcefc2bdf83
3405839a-a938-45dd-85f7-297e9c525152
486447b7-1a10-4bc8-870a-ce374a057fbf
32600ff2-3361-4a24-afec-b770698b201b
913cf95b-7ec4-4161-9943-d8fae5f24b58
604ce590-66ab-471d-a43d-c17c95beb91a
b0813010-315e-4915-bb47-8cf3e1142825
c30a1eff-3a65-4f68-a912-f13c84582ce8
e1c85669-1f44-4c21-b98e-89dc4847aad5
f75f4511-8136-49d7-a737-88e5845e5864
60976e74-96c5-44e3-9c09-d5461fab89fb
d43887db-0c83-4c19-85c3-174847097fd8
d5f32a00-f4cc-4e35-958d-1cf08de650e1
ab723ef7-d27a-4795-9005-ecd7eb135166
ee20ec2e-b87d-448c-9d25-0702fc174f03
17a18182-ffc4-44cd-ac23-5af4a7e50ffc
1bea501e-0fa0-4696-9fa2-364c5c0fd9d2
6621b150-eaf9-49bf-ab81-a2916a810122
fae6a485-918e-4ff9-96fd-ae2649886f0d
d0c85278-73db-4ff8-a0d8-d7137cf93923
73820d3b-4314-4b29-aa45-9e5fb5bf5955
8d44f8f8-3f9d-4ccc-b5e5-fe8a959248fa
fb42c714-3339-4bc0-8dc9-b64f96453546
fca8d325-76b2-4173-ab3f-51146df842e4
d6859f0c-a586-40ec-bdc1-9e77c6381d17
2d462d6e-d5d8-48b3-8d9b-c4a1bf57882a
cd9952e7-5837-43fc-9901-6723e609ec3f
9bc0110a-5e49-46f5-8ad2-52b0c074f7cb
eadaa797-ffad-434f-8f1a-caa37ba18b5e
587a9f75-567c-490b-aa18-f241c0f02bfb
87ccda55-a4ff-427a-9b98-772acbdc7191
1bf66c15-01ee-4d58-96d5-6d8e0d518ca2
24f5c587-ba36-416d-a0db-cbfb75f68e1f
95bb65a9-fcd2-4679-8cef-775ea5d671aa
a11ccd4d-98fd-4625-82e8-73634d3a0d21
a492c9dc-dcef-459c-b3ba-5fffff375a24
089b4940-b764-4301-9c80-fc4783387296
21876be5-adcc-44f2-9fdc-92348bf25c9e
5dde3fa2-4b2c-4439-b11e-5ea2f49ef592
2e5a3b3e-65fd-4983-9fcb-6a7af09209dd
075974ec-2177-4caf-b1d0-2e4927333d90
6a33936e-9eb4-451d-a248-a04d0de93621
821c59e9-4d0f-4785-b86c-64bd55130e5e
c57081bc-8322-4e29-a71d-20a22e9b3386
5665bd15-93ad-4fd2-97d4-1ce0a9cca012
721263ea-bff3-4d86-bf13-5c81146b9f60
2c3d7263-1c34-4869-8949-e3c8d575cf37
712e9dea-3c8b-488b-aa3b-61fe6dc345a1
c7a921af-b76f-4d48-8f67-4ae3fe2fa85c
689eb3e6-d520-44c3-8795-9ab52a9cf14f
0d1c0804-7b46-4546-810e-7deb700c8cd8
0cbac3f2-dfa2-46b2-8ef1-311604bc4964
fbea00bf-b5c0-49fd-a317-d78c31d36289
c2d2edd8-1169-4a2a-8aaf-b18a65503e59
0a9dd6f5-930e-411e-bc23-af63ec4c1ac5
185b677b-7bf9-4ad2-933b-7695cd13f708
0c56a0f0-95c4-44eb-9656-f93e93665e9c
278ddcb2-38ec-411e-80a8-27075b7b4044
49003dc1-8cd6-4e93-af3a-33972b84eb89
1d6d6db5-66f2-4865-bdb3-610f16b64e11
f6ff9c25-826f-41c6-982a-386e47f97b5d
258cd233-117b-4ab2-87d7-d0908fa0fd7a
84682059-e01c-4ce7-a0f9-2c4183a4c129
f8d11be6-225e-49b3-aaa9-2bf5a18ebe52
a8591370-53f8-46b8-961f-ece25010a000
136d3394-1c80-413f-9eb3-17ad6d8ac602
0cabe94f-3c27-48a6-8aff-dd1bf8e65109
c033f663-c054-4cba-9578-0cc7ef91ff08
55dea234-19e3-4f5a-a543-41576c3cf93e
73ac6392-fd15-4533-9d7e-94d54c6212a6
6a79b587-d2ad-4961-8c15-6b13a58086cb
7a86dcb6-aed2-4fe7-84bf-ffd59eaf2230
bd394e55-aa93-4f45-b706-8fd3905fe50b
c9cd2d29-5abc-449a-bd94-9f78e049af97
c300eeb3-a669-444a-b7f5-f4772db09a37
1acbeaeb-8222-481a-b914-736f8c8398c4
99bda76b-4e9a-4134-94f2-019e6c2874fc
27cc5aa5-2bab-4bf8-a85d-bd6b29c302a0
0bdac63d-965d-4acd-8df6-37222ff95687
994f19be-15e6-4ab5-b269-4baed399e988
9c4987af-af27-4bae-a6ec-1d04419f3d9b
a159780b-5ca5-4f13-9036-a83543947acd
9b4e1f01-7748-484a-b880-ba4bbf0dc7fc
76fd5c5a-787c-49f1-b433-b10c78ce35d1
967bbeb2-1462-498e-badf-5b0b70a70f55
8483fb01-d9d2-4b3e-9592-09d4c70d757a
548c18fb-05b3-48b9-acfb-cc969794a36f
2248726d-b0a6-4573-9132-b150e7b7e0a7
b9e852e9-de7c-4ed9-aa5b-45833771f8bd
d09a563b-72d6-4986-9d71-ebc871b4790b
b5e229f6-7f70-429f-bf58-34cce4b5857d
d83a7c89-4c9f-42e5-b37d-4277d682a179
0a6d8cbb-93dd-49d4-a611-06d1154a7168
391b44d5-9b40-447c-ae4a-4e99b89e9ffa
56ee8896-5a7d-499c-9d82-7a6cfcb9cae1
8fb4e27e-d5a2-460a-b302-c16946b21bb3
6c9526ea-9b8d-44e3-aabb-8a53ef02dad3
f3dcbf68-14e8-4d45-abe2-223c7a6ee778
8502d610-763b-4ebd-b6fc-51a18b507244
28a4f54d-b7a2-48dd-bdf5-86d29ffb16d1
5dcacc49-7344-4723-a60c-dde8e8789f9b
44f9e156-ccb5-4aeb-999e-990149f3a6be
b7a9e4a3-a92b-4d9f-a328-91f3947b8db8
4ac7a063-8c7c-4f90-8552-827954b7593f
a3db8692-8e18-4f27-91b2-82adbf7a96f7
c6118361-daf6-42c2-94b8-7b18a09a01ea
676e3c35-1545-409a-b061-43aa0d71312a
ceb4a587-32fb-400d-b74b-0c44f3850034
9ccaba1c-531b-4c66-8a4e-ca8d5f4215ed
92fb45ef-0227-43fb-94ed-1b6f39eb6167
43d6bc52-0aa2-454f-9064-0c7abf1f66d1
775936b6-5fea-455f-bf7d-95e535c18c9f
b5250840-d85a-4f9b-b757-d22695389099
2a126576-9f1e-42e2-ba74-10fc45a2e77a
2d07af1b-dc91-4bfd-805a-8d21a6d664eb
dfc3e034-652f-4bbb-ad7c-c553a0ee3322
f4b5179e-1663-4609-989e-63dac1989bec
1afdb250-9a34-4b47-a792-ed50d4f954f4
3b9a2f88-abf5-4b74-8006-d76366da5e83
36cf7657-a2f5-4fca-bce5-d2206529841d
528baf08-5098-45da-ba45-1f14c55fcfef
ffa65e9f-edac-4047-824a-d38ef71c468c
a475a39c-649d-4eee-a5a4-04c769da69c4
fab9d00f-29dc-4147-8af1-2a46b3015d9b
24402eb8-0b04-472d-8be8-85b9358204ec
c7c5f171-3dbb-4361-b1ff-dfe595e2aa8f
6a4718c5-ab9d-4dff-b9d9-6b406dccbd31
f8b320ea-6c1a-4547-91b3-16d29075732b
da48a43b-6ade-4905-9b26-bf9c35cdb450
04d01d68-533d-4407-81bb-db93e91b17e5
27c7643b-9fe7-4f6e-8415-566723e643eb
5efe9ab0-97ee-437e-8b0c-328e1637930f
f32013b8-887e-4a22-a45f-fc5aeadbf1b1
0092085f-1083-4d75-821e-fbde5d5fabe6
d5467402-af8a-4cae-a3b5-5d1b8af268e6
6e217e2e-ffe0-4a96-b8a0-65d9d0ef68d9
d2972434-046a-4c1d-9193-d5eab108fbff
4fd8f287-4a53-427a-bbe5-deaa6fc131bf
8a9986cb-34d4-4685-95d2-d1e32762e3f9
5b21d495-cf38-4886-ae56-adddb126cc54
2b7ea6f3-2904-4311-b89f-498b5668d2c9
37c6fccf-4c86-417f-87c3-1985b1830e09
acaee7a5-1401-4f3e-9091-06c2bce74f10
32240157-5ed6-463a-98d0-8fd12076887e
afc25799-e3b0-48ab-a88b-5e2404c82933
02fbe9c9-f79a-4b4a-bf7a-cf04987ce835
93b9fd35-fee3-43ad-9b8f-34cd919770fa
c2633fcd-d476-4421-b602-a35c297b5dff
dde8f368-d118-4f18-b98c-ca73c3dea745
012f7eaf-a56e-4bf1-b695-2bbed44712cb
b57061e1-394b-4b5b-ac02-c2c359144cbb
d404acf3-d0f2-48f4-bbf1-b8d4b89ba3e7
f4396e44-4a5d-4c0a-997a-00830e087265
51808549-8a5f-4ef0-9275-9ec7c1840deb
7a90ffd3-b457-43a6-83aa-d06864d5350b
2a21805d-d051-4aba-be85-6f5ae7c3ebcc
6633347a-bfd5-4944-a517-aa74f932cc1d
03cb7baf-5ef1-4841-8fee-c32e878a2cff
c384df64-5131-40a2-896c-536e42e05379
dc98eb8f-1e6c-481c-8b71-2d62165ad0e6
02a706a1-a2b9-4e5b-b2b0-d80378f62b0f
343a2c53-28c1-439f-a522-07e1f5403638
ad65a0fc-2fad-43b6-909c-b186c273a4ba
effcb73d-ebe3-4b69-b541-f41945f4d00a
f9c62b76-b7e2-447c-a296-3c5009ecea91
76d961e1-c185-4c17-a3cc-4e270ff8c82c
b89e829f-14ee-4a07-b5d0-087fa086ca0b
9ccd28db-5d76-41af-8247-510e1a563c06
558623d2-2aa6-4e60-9038-6892bdb229cb
b1209adb-741d-4efe-a5e5-817e0bf329e2
c73367a7-ea9f-42f9-86b0-58547ff6765c
e907056f-a25e-4cdc-9c42-cceff3d970b5
2c91c5fd-0753-4e7d-9428-9668d68a50d2
a40cb3c5-0246-4b6d-9990-8bd231a00966
78e52164-623a-43dc-b36c-d1e96ac434c7
00542258-5ca7-4ca4-bff3-70ccd7fd7789
a590d993-fd0a-4f10-8544-c27a053d8dcd
d163707e-facf-4fd4-a400-9850f9afba7b
d415acdc-e7b1-4b14-8704-862e53a50e9e
dbc6e652-7e80-4688-9e3d-a444ac5c8029
6bb41259-ffd6-4ffd-a2ae-65858326f642
090296cb-299a-45dc-b216-9d9a6dee7efb
4ba4d853-3cda-4d11-968c-2771a4c153d5
bda298fa-4616-4851-81d1-ed27acc23d0e
c693dd9d-a3e0-4139-b169-3fada7acc0bd
25ff50f7-8f54-4be5-898a-723efc91993b
c4c5b1dd-5103-45b3-9feb-0c1a7e60a123
039115cc-4a91-4e8a-81e3-8b49758d7659
c2bea1c7-b136-4a80-ae14-8bade15bffa8
df110c33-af1c-47b5-9b02-df019fbc2276
4b88852f-2be7-4059-b00a-9c5c31bb3e8b
04de8a51-0237-46c4-824c-cccc8f0f6779
591d7ddd-73e1-43f1-a4c8-0e7f5852af74
b5c1f429-c772-48d7-b9e1-b9c4687e30fc
b1714561-613c-4aac-be41-b02ac05a1ff2
92e584da-b59c-4b85-aab9-e80efbe1894f
b4a20776-3509-4c6c-80a8-feec35bde8ff
5798bfdc-56e8-4db9-a5c8-30439a216dd4
bb526a9b-9506-4008-90a7-0728679cfee4
03eed267-add2-4a0d-9ef9-ca31bc794b36
21119f94-6307-45b6-9597-fbd923084165
393e418f-5d1f-4bf8-b26b-4f2e1d202902
4f78fe22-19d8-42f4-8f29-4613a2d7f1f0
8c6e9d2c-d44d-4d71-8fea-f647eee0638c
d85d68f4-4df2-4151-8bd6-13b4b81580b6
406a05f1-597d-49dd-8001-9d75da904f7b
0bed0454-98c0-4cc4-875e-e8fadc58668d
9737b6c3-d728-4e1b-8be7-a5d41a9e3231
dd0337fa-c747-44a3-a753-5dc986416e16
947ff8b0-e361-435d-8885-af55bb86522e
2c4605eb-3e83-4b5b-88fb-41a653c93049
356ded35-c24e-4376-9096-d7dfcb802181
44c2aa01-11ad-4447-a03c-6206d5dff3b1
614ba766-1ca6-4b56-a106-3f2f863681b3
0900952c-b683-491b-a197-3880f93223fd
204cb82e-9288-455b-8020-a48bf427b4cf
56a83a46-6e07-4037-be5c-482cfd6cfd2b
6afc8ece-373b-49a7-8212-fab1c517cf19
9b9e8730-d525-4e63-8f15-da62fa7041a9
ef2a8c09-d947-424f-bc28-8a29e6781b8e
129ca09e-89e5-4637-8a1b-8490cfe45d3f
abcd883a-7d39-4900-ad94-15983314aa06
6045338b-07f4-4790-8f70-bd69661d1b7e
763b551a-6687-44b2-a68a-c63b76516e4b
b3909b82-f743-4857-a9c7-b031be2d0697
16d47cf9-1f3c-4944-8d03-fcc3324e291a
dae96e95-48c9-463f-b114-16903bb35833
9b617990-d824-4989-9f83-6b924649332c
18e3b858-ea80-4aa3-9b07-fd549ee03dc0
f0d9d856-6293-404f-94be-5595ddb687c4
0e73a244-8574-4c2c-9d6f-adf804fc8c43
98f59753-32bd-4e60-9761-dc63e5245dff
5d0762e8-8796-456f-861e-ceb18ae13ac7
22a713c9-3922-4079-8fd3-152dec92bc00
7b888763-7096-42a1-97cb-aa354571d5ee
2700d72f-15bd-4e75-b68a-2821b17204bc
66f70584-0402-46b8-81e1-caad176d4ffc
f5ec8662-f02d-44e0-b958-57f2f49825d4
f799f792-4d76-45f9-90ca-47c7c9affb4d
abb475a6-b057-40fa-9617-32f912268742
e40d2e6c-e9d3-4978-bc17-2981027a1914
3898381d-2527-4960-a55a-7504d48c13b3
07d4de0b-a834-4bb9-96d3-edd15bcf0c74
2759f1bc-f4fc-4d82-9e0d-0e6a83006de0
628404d5-d520-41b2-abaa-e83de7d3dbfd
adafb7fa-4446-4687-8fc3-c5264a8ea002
98297c91-4a00-4d78-8afb-31db649b6767
788f2861-fce7-4d99-8ba5-be5448ff1925
14c2eccf-5c30-416c-acb4-82fabcf1439f
73bab2ec-b916-4e8e-8eac-16cd527775ce
1f8bf4a4-2d1f-4c43-bee8-01f7c77c2415
0f32cab8-8fd2-47a8-ba20-99b251b768f5
30451bac-4363-4f9d-98dd-887dfb989a89
86c2d859-7851-406f-94c2-e1d1154378dd
394c327d-7099-45a1-8021-a4a68399991d
951d048e-e0bc-46ef-9c55-794eacee53ba
5f961cac-aef2-4dbe-bba1-16d5b28b6f9d
a6231cd0-b008-410d-9f54-d3857c584965
b8598035-9c05-411e-a373-827823d3390e
ee2278b5-8133-4a70-aa89-a2f63fccc0b6
a57b02c4-8c8b-44ad-82bf-26568e20830a
ae09a7ef-9b59-45b2-80bf-e921c367e763
f7d7d2ef-b353-4c11-a3a1-8ba72bf0ca9c
70658bdd-c414-41d6-8cd1-a8bddc4bdc20
fc50ee03-89cf-4050-a031-518986e622aa
423cd66e-3ed1-48ea-9eee-e5a273e61944
c4811c0b-0f82-4d6b-9ad2-8f80bf7587d8
83375112-b137-4ddd-9c7c-49c362e98d76
5ea45144-fc05-40e0-8b00-3b4653c4eb51
3f9c8c0f-0fd8-40b9-aa4f-ce584a03d467
0fad6eed-c5d2-4bc0-81c2-b93d57ec864d
e8043600-7d6e-4307-a350-f10b719aa3d4
9113fbcd-6931-4d05-9b15-c047635e523e
6e7acc3a-8633-4762-9fce-2b0a4dc9e1fc
ae6feff3-2a83-4bb8-9562-e0bc1e8d228e
df133105-59fb-4429-87c1-ab270ccf5a05
b0c1536c-a708-471e-b590-135619f00e70
f143628f-6b97-492b-a6fb-f3e22d2cd2bf
697a53a0-81de-465b-bb97-8ef1a4eac808
a079535d-5a7f-457b-ba70-3c2839c63410
01d7ef84-0d62-4cd1-93ce-420420652526
557e8752-4531-4dd9-b211-bbba3cae1c85
c652e549-90cc-4388-89c2-f64c4bfd3713
4c3b8a4f-29b5-4de2-bf2e-144a7211fef5
e2c5b153-4670-4f88-80d1-45c86c3335d4
4210fba3-6385-4ac8-b246-24fd2ae9d0e8
ad0d0fe4-744c-4987-a67d-56dc598f226b
939a2426-36a7-442b-b99b-6b9626584182
61f6a13b-db84-439b-9947-1a92b2b6e1e5
70ab295b-ab68-4826-ba3e-1ad471cd6004
db3572c1-d778-47bd-9d9e-69368ade7ebb
ce08f92a-9a88-42b8-b1d5-5a24db6294bf
f5ceb86c-a34c-461f-ad68-381caa0d5f13
376495df-6de7-424b-9b20-71c5f47ad67b
98aff9fa-ed9e-4204-91fa-24832055c6c6
b30a230e-6b21-4623-a114-7ceb8cc87ca2
d656cac5-bff6-44a4-b979-310324738f7d
61bb8278-8a3d-460f-baec-1d72dce6ee79
9641f690-b671-451a-badc-82d4d3b7fafa
0c344d42-c916-45c5-9141-27d621c4d36f
145fd705-c948-47d4-8304-20905ac9c45a
bea05174-6b0e-4c10-9a51-d93730f80a6e
93ead20e-e370-4cb1-a76e-70e4112e47b6
c96f77ca-cd9e-417d-a1e7-e0883d115f1e
4533b6e1-433b-447b-a039-a2081cd30364
4f1f42ec-6ad2-49aa-a8dc-637ad830e94f
7ec7ccea-3524-445b-b487-7aa738c3793a
f2683ba3-5b41-4938-b6c4-515d56a45ced
2c9aaea9-a488-4312-8390-b0f8c5f7f787
43a5fa6b-670e-4ab3-8366-4553fbdf96ae
450b5e66-03cc-4786-8b49-2e2b4300939c
5045cb9d-7476-4a74-87c2-7a0be44dbbdf
65a2f0d6-4d5d-4822-ba80-01ca8ad83be6
fc54aee2-d975-417d-b115-5ff9268910d7
99d3e0e6-9a8f-4ff9-aef3-9ace52616e56
9363108c-61f0-4f43-b579-2701345ef11d
17683d84-26a8-4b22-95e0-392cef05e86d
f7d99a5d-80b2-421f-ab94-a26e676e85b9
17bb8c41-6460-40e3-a25b-0359c7da8b3c
63740af9-6bc5-4749-a5ba-75e0085555f6
6d62e4d4-5a64-48d7-9361-c86d9d4d453e
9cb8e5ba-49c1-44ce-83bc-49f161e0522e
aca0ae2b-f2eb-4fd1-b662-a9d7ae131253
cc5e25d6-2b69-4988-ab52-9c6556ae842f
e1f49133-3576-441b-99b7-ee31e6dc0b79
45d34675-c2a6-431a-a99b-832dc8f04570
afd31e45-cfbe-43dc-8fda-31b710489325
c5656d98-73c9-4e28-b071-46dfcd4243fa
f2665348-10e5-49e5-94c6-cb8fa77b0b92
3f9b78ae-f5dd-47a5-a8c1-0567910fbb00
d0a2b237-5587-42d3-ba88-bbc091fc1ea3
b4264df7-ba15-436d-8bee-14d0bbe1644f
af1f0f4d-a9d4-4552-a699-3cb8ad892fb2
4e9edb18-4567-4d6f-8518-a70ea465da48
870f7312-c5c1-45e5-94d1-b8480dc554cd
d5f30a83-a855-4e22-95c5-2070431cfcf7
001eaa7b-4a2d-4077-b590-1f288a42a8a2
c264e1cf-3290-475a-9150-49ff004048a1
e0686021-1b94-4b69-b6e1-3a08b381e225
e5e3ab2b-32b6-4456-a9f4-b34afb4d6257
eaa1ede4-055a-46fd-8f25-7cc8bbd93729
fb15b20f-1ce9-4877-aa22-6f915ba6e826
08c84e53-3b7d-44e1-96a3-f492ac50064b
3ccaaa3c-7f1c-43d2-ae47-7586fa1d180d
ae8302b9-061e-4cae-85ba-d3fab049e548
6228a877-7e44-4036-9937-332ae2f2a350
1280b8bb-214c-4633-9c50-c495c88486e8
821f2982-65e3-472f-bb19-e5a78b749b71
66671fe7-2c54-4113-b1f8-94828bbb373a
6acb8d25-799b-491e-8c38-5c1d3a7eee35
ad508949-e93e-4066-8999-28899893259e
29718b1b-0f60-4c7b-8bb8-cbb48d0cd4eb
673bdad1-3aa4-4d66-a024-c49365683c65
a9cb1b45-0038-4846-be2c-9dd54460b81f
e7584019-5d28-410f-b594-447f913d7292
c818a306-8480-40ef-9e3a-77f01d56fe58
435bd580-6932-439b-a9b4-33e86cd734e4
aae2e8d9-8773-41c1-8b3f-f5f061c5c994
fa87b882-9e3f-4681-9e72-85f29b8b89de
6c08afd5-a91b-4c37-89de-cf1725fbcee6
6d0e9cad-7e3a-4bdd-b26e-cb04482345cd
772e0fd1-7d21-4b2c-aecb-dc4cdad62ae0
f14636f0-d8f5-45da-878b-4136942efc17
6c8e0471-673d-4cf7-9ffe-93a2dcfac53d
7ee735a8-858f-4b0c-ae87-64e2bb77d6a1
9e57e236-62d7-409b-874a-3159f6febfba
73886be5-c02e-4200-af1d-33ab32690ac8
2eb0fdf5-088f-42e2-acf8-6f09949d1078
5f48816b-9b4c-453f-9ccb-f1a61c84fefb
c13263fa-897d-4a4d-ae8b-f57222df0155
4241f45f-2124-47c4-820b-9b9a7181d01e
775d2edb-55e5-440b-80df-f3a10563ccf7
02403258-9dd1-44c3-b9c0-690a7c5ca546
8e4cdcb3-a239-4b01-9366-bcbd86407bda
dfb3c990-9460-42b2-9c33-76e811bb00e1
b8d78f90-32b8-4933-8fd0-f6141799577c
3b644443-a405-49de-8f15-cc364abc5708
97312b00-61d3-4b4a-b3fd-62cd43baf131
ca6b7fba-fc5a-4307-8945-f9ae8dbb9377
45ed7425-9d95-4f56-9f7a-5c01c4f205d4
dd9fd9f3-9efa-42cf-be26-b7f7d1f50f66
46211924-5520-4bdf-98b6-a35894a9091a
d4732cae-4ba4-4ab4-8ac7-2a008973e60f
fa6f6aa8-85b4-4431-9bcc-70cdd458dd55
fca7a4a7-358b-48b5-b565-82e30ea3a442
58385f22-6e73-4d92-9ba2-22bb48843b3d
7374cc6e-3175-4b96-95c6-9e5d868c8549
2438faa7-163d-43fe-9dd7-b1d69ac5f2da
687bc7d4-c46e-4dd2-8b47-0e6a98416b3e
820fd837-5a01-4418-a1f6-88e74242d91a
cd8a9829-aa30-4dd3-92c9-bcbfaab7ae9a
08af1508-5530-44ce-9d12-ed9359b42d3c
6d3f7444-c884-4aab-ba4c-384e96eba759
a3cf8d7a-8e11-4983-ace3-f8ac9266be8e
d3da08cb-33f4-41a9-b3f2-bc3cb707f35e
457a55b1-a1aa-42bf-8e71-595abb4a5083
a0b8a51e-f256-4375-a84f-946471aa4610
a961b9ca-092b-41ec-910f-2a72d13371c7
c33e6d71-bd4b-4b94-9801-c9edb7f01e32
fef7e2d8-30c9-4740-946c-0d7b0a9cd19e
824c5098-6034-4155-b5e2-eb9d662691c0
86380d8e-8009-494c-aa95-11df4d437099
51ee733d-8813-4513-b196-afd153aca91b
f551bd1f-3263-4e95-a6e8-243338a7b403
a6522b74-4241-404f-8723-e698e255a087
14c2690b-91bb-4dd0-b418-84781344f47d
218728e5-925d-4cc5-bc96-6c26ad4006b7
0362a1d1-e41f-46dd-be13-c08d52520877
214fa9e1-a698-4c96-a68a-ae47c479118d
58a732ef-2675-457c-92a6-b98a04f1b1b2
bcdbd53b-0c7c-4ea1-af2c-8f1e6fdd9d4a
41ef1dd4-4050-4c48-b224-4e40e0c4911f
9574d782-77c0-4028-b8d3-37e87338f6ae
5237d7ac-7431-42f6-9da1-c015a3d873b7
ef4c360e-a039-4886-ab90-98dbe29555af
4f6ece68-50bc-4f67-94d4-9babed0cca11
d9318cc7-fe8f-4faf-b68c-6db25890d02b
6f215e2f-dca0-4762-8990-1b336848197e
078bad88-d2f5-4643-949a-9e0e9a07fb0a
2307b8b8-bd4a-4a57-b9cd-b48ee756e99e
710b501d-2c7d-4199-8eb9-de61cde2cf07
2012e540-88a8-4213-aeab-3ab41e4aab0a
03a78935-1672-4db9-af33-835092bceefb
b4252033-da9e-4f92-b353-c33feeefe8a0
eab23985-c578-4c8d-b80d-91de4f4055b2
932f9800-dd82-4f37-a06a-89f4ef0beb48
35542c62-19da-4421-8401-14f23fe12cf5
e1dba6dd-4fbc-49b4-aa0a-586393e980d0
ebd2fbae-6ad9-40b1-8836-1ba0fcb9e4d1
40a6e597-a038-4b89-9f7a-b34b1bc6d5ce
491da015-bc22-43ff-8524-a6640c1901f4
f92bed93-eda8-40c8-aa17-97d38990e750
772861aa-87d4-4d3f-a0b8-085d80ca383d
0bee2c49-3622-4ba2-b9d1-53ac9daef4fb
5a39f907-bd5b-41a2-8fee-7de8e1e6cb6a
678e4279-b81a-4018-b170-7902d2a58586
78941414-0fa2-4645-b214-5e693fc7c6da
b288da7e-51f2-47c0-99a9-8df8e1a25543
e6fc122b-8698-4fd9-ad89-1167f72f3523
0b48b09c-f1bf-45d1-bb2e-fdc5099f3c33
3ffbf7d6-f9e1-4986-8553-3e073a318bb3
23d3ea02-2293-414d-af81-6ef2a590d0fa
3292f689-7bec-4a74-ae8f-50e68063ff4c
4baa0a76-d3e3-470f-a713-6fdab55a7ff3
ba58a031-fb07-4bd5-acae-453729431cfc
279654d2-72ae-4a61-9360-3f142f4cf2fe
115c8052-d375-4ed4-bd59-bc1176fa61ad
39c831e6-bef5-4d80-a0e2-5d70f70acb91
28820578-6f4a-4fe4-b248-fc651cd3a2ff
db41b582-03f2-4371-ad9a-ee7dbdae4868
658ae131-5fbb-4355-a3b8-9695640f3e2c
a79b3225-8ef5-42ca-aded-a70873cd009a
0ef228fa-81f1-42ff-87f6-73bf6231fbd1
312d5ef4-ea0a-4749-ad7e-4ab3b5d0f179
10c4d1d5-1146-4195-bcba-c3e59d702a62
1bf8754a-e81c-48d2-b414-40b7965a576e
a378a44d-89c5-4494-9b83-86d4d620fe2e
c92dfb82-c725-45e0-8327-f5db681fe18b
df1b0716-727a-4dc5-875f-3db6727a6177
68d6d975-7731-4420-b661-f059b082bf88
0ff8cd4c-87e1-46f7-8b25-f381f59fd703
522d6b99-12df-4853-814e-b14e6743d837
02f59c77-4289-47ab-9537-cb8343b1dacc
6d766532-831f-4380-ac66-13cec0be3285
15c59147-6f48-4156-8313-2ab7537b950c
2e93dc72-ee24-4e59-9887-271ff769f333
a22c1a44-5777-475f-8472-2ececf15d478
5ad36a62-e335-4f4c-8c4b-16f481c79ffc
8daa13fe-4876-4c8a-a9f7-f6bc63ece70f
79a1b9de-0547-4edf-820f-f0e0cdd07868
b23f711f-ec24-478e-bc4e-bf67c0e9ce14
41e4d03c-037a-4c6a-b9a7-3695153906a1
4e61d1ef-70e6-4cf7-8bc2-0a57215ab519
ece8a3a5-fead-49a7-b45c-dd2a9c549b70
b1e09c0b-5509-4dd0-978e-64e09e00bde2
bd2a893d-4f90-4794-983a-990474a564e5
05344e07-41fe-42e4-8766-8fe1a254ceb0
06c67622-5a79-4d24-a04a-6cba7214c793
7011bf6c-7a4e-468f-937f-4e7d83a4e0b0
96fc31d9-0a49-4fcf-a5c7-b39e945883af
512527d7-619b-4754-bc3b-5ab219e10445
c0f04e6f-7df4-4170-b4bd-bf3d088b7a7d
ab3fc4a6-30e1-467d-bac0-b1d2224b9441
9616ffe1-4fdf-49bc-98d9-406f876cf098
5fb24a4c-10ed-4b81-b194-9b4e07ce0b22
7c6f95ad-8f13-42c7-80ab-3b66b8364de6
7f18a5db-b7ab-4ae8-9820-eddf477bb09c
3297bcfa-4177-41b6-bc12-14e48478f0e2
32d3e9e0-b794-42b0-97e3-0afb0c2a4ce0
da1e8419-b1e2-4f49-833a-f77e8da52a89
20e3044e-ebcc-48ca-b763-c1869ab35f3a
96f93dc6-7b87-4df0-a3b6-2cd6dc7e3201
d9396375-0d1d-4d40-9982-283248a65a07
594706e1-26ec-4e9f-a03c-2e7bcf940860
54210752-6053-4897-b1e3-56f6db75974d
b1dbb4b1-0edd-4a6a-918d-fcf871b3d29d
bed196a6-1341-4511-b991-1be1805f2a89
449ff94c-e423-4fe5-83af-389979b4b497
a65ecb87-1c05-4731-9518-1d05fdc797f5
d9f1be24-f13a-4743-9839-3335994d8b24
4269ff09-6429-4bf8-b471-9315f2941d83
78fb34bc-5f34-494f-a0cf-1e73db7b6901
a2548ca7-11b5-4c2f-9de5-0d404efd58e4
d8990b1a-0984-4e10-b75d-5334dd23281e
f482e1e9-f443-4856-baed-5c9ae66154cd
b766489a-ccd3-478b-849e-c58fd6ced8c4
040f7804-97fb-4258-b250-07e5e398fb02
cf0ff4cd-049a-44dd-832d-81a26164baaf
7bf6adda-b60e-4abd-8a27-6cf1fc669321
b8e5a239-1fd5-4c9d-adf4-41ccbeb2f8af
82dc3742-2b90-4904-8edb-4f42ca42d448
4d27bfbe-c474-471e-8027-3e83321cb0ce
b71b9f27-fe5b-4105-bf07-b006fa94bdd0
d3e57ba6-b97d-4d0e-bfa3-9ef3627fed7b
15390f74-22a5-476d-ac20-17ed588b0b16
62792b72-fd59-4967-a14e-75bae27124af
1c9fc17a-5945-4473-9ed9-77b9c7bf25bf
83e05872-c92b-4d18-bacf-492d76c0f8eb
dd7cc1dd-7d62-4828-99d3-3e3cd6d7f276
db2495e5-9205-42dd-95c5-3b935bea4cab
f306a0cf-20fa-464d-8d7d-b8db69575deb
47edfebc-fbf7-46bf-b628-4d34b03e6926
984ae6b5-8990-44ac-a01a-65d150b18ca4
dba2a18f-b9c3-40e9-a185-8b0b2b887274
8c0ead80-be10-4583-a649-91571f3e1b0e
9f8c5328-7b2c-4981-a5f5-95243d865c23
ea24fcb6-2c80-4eff-a2cf-a57ae97f225d
d98fec4b-f458-4e4c-9225-f80fde7eb107
1ab134a7-39ad-4679-94ec-0aa7f02015ec
58f1f7bd-f172-4ec2-9d3f-032c4ecd1260
f3b60aba-4dfc-4305-ab6e-2722dfce8685
40c5ce26-ac03-46f5-ba06-8a82dc6ca08c
e1bf315f-112b-4a65-81f2-c309cc4d5adf
e529e84e-6583-4e1f-9771-7384dba293f6
e6f1450e-8317-4115-95ae-a5d250fdb224
fc44293e-5e57-4813-b139-7be0c91b9e29
159d4da5-e7f5-41fe-ba15-532cd7231ab6
3fff65b3-f60f-4117-9abd-4ece414a8019
6919088b-d9a4-4f37-a647-4f7229d6ff0f
a44ce936-9778-4853-a8b2-4d393b8fd366
c94026a3-a016-4b4a-b73c-0f7792383aa0
eb39adfd-2637-473f-b135-71af2ba3ef80
7471c45b-00c8-42ed-9b6b-5db5c0a03e6b
18c6e974-34ca-48b9-96c6-ef0112e8c7dd
39e0d373-a85c-4093-aa4a-0232e144a4ba
d58c01e4-0da6-4245-9ca3-e04e2fffb784
ab46b629-00b4-4827-9b7b-e498ecbd0d36
a1555f9c-c50b-4dea-b2f5-1f1191f318e6
ee10504e-d612-4ac0-abb0-b831a1fb47ea
1a481318-c2ab-4fe1-a14c-5dea4ba220c3
dcee0216-fe36-4ee2-82be-7bc564f7d378
657ac7bd-8291-4ea9-98e7-00a2fc3da8d8
caf6771b-8010-477c-8388-5d3e3fc9cf65
d6c43df2-37c5-40e7-b12f-ec2c3fe3b6ed
db449bd5-33da-4bd5-9aac-13c9f56ead28
c06fe2aa-2c8a-42bd-870e-8151fe111cf9
ca876b9a-db68-4e85-b2bc-6e4e80100c0b
15934c3a-cc82-4057-a313-2188db1edb1a
713067dd-82cd-4c80-beeb-10e53d869a02
869bb60b-b00f-40dd-8523-10e824d38ef2
1562c93a-10ed-4346-b982-f73b4c10fb94
17902077-a4f1-4da8-817d-c849462b05e3
86a69970-8047-461c-b844-0bcf967ebc26
28174a5a-0cec-4b3c-8bc0-826910911f47
4f1f5787-4212-4e9d-9565-e11c949c0f29
c9cb0b2f-a044-4adb-81c7-72c07b6f58ba
c7bd7c1a-d065-4dfb-9973-53717b6bbe98
1982d8b5-b817-4915-a419-2e74e253d9c0
4e95fda3-cb71-4890-b504-5b91bb51853f
ab9d7748-4ab1-4641-aba8-2ebcf6e4bb25
78105a7b-670c-47b8-9f6b-aa358e1ce110
05ed94dd-c81e-4c4e-8dbc-88a3760cfd75
5eaed9db-4e22-4222-9364-f62fc1a4a760
b9dfd065-9527-4a11-a49d-aa9205771377
8b3a8bf7-4e57-4a4f-bfb7-cb6dcda959f6
852ce596-cecf-4fc3-ade5-1e49f4c44239
49834a55-c7bb-435c-8432-f9e68903cf14
eb4ec76f-e6ba-4ef9-9135-b4f9c53e5d45
0f497350-abae-41c1-b7cd-30d4b8d1d1da
26573f01-f724-4453-9ecd-4d68703aaa18
faf68a35-6537-45c1-81ba-d9e402fae1f2
161c1869-7b17-41d2-aac1-a7dad7e7c6e3
f0e0365e-fe86-4821-8fc9-bbfbd434ed07
849f346f-b3fe-481b-acfb-c8250cfcc3f2
f0e2264e-e6f0-44db-b7e9-926a98774dee
720759ae-0c81-493f-aea0-00ef3e23890b
bce96b7c-b38c-475f-a90a-490e94b0af85
736735d8-2d8c-4bd5-bd47-533602797abf
a06def63-5b83-4959-8f68-e70ea2a1d05c
853bfd1c-3481-4863-928e-29680b3b3e36
ba385eec-b79f-4247-abca-d6440bd9a1dc
08d99c6a-7d5d-49a3-b07a-c87a91f61b35
921eac1b-8a59-4c48-9925-1a37e7997c02
c588c139-d15a-4053-ab48-516d0253f346
acbbef3c-067a-4707-a984-a6cbd3407aab
0a3f97be-e8f3-43ae-9886-90bf7db0f8b8
a0d26af7-96a0-4c67-abae-7c52aacbe66c
fa3d2e9c-4c45-4976-b386-e5e0b06f74c4
5d57393a-e5af-4c56-ad8b-d137be7ee663
366a82bf-51ee-44e5-b769-8a007f7f6b25
7d9b7433-7adb-4394-bc2f-f1f3938a6f5a
82376cfa-d848-418e-93b2-e779e34d1c35
5f8e408f-0371-40ad-a551-3c83491406b5
8a60615f-571c-4c2c-b331-0c20bc0384e3
ba2204bf-88c3-425e-a2e2-ddbace8934a8
02d80900-bc31-4c40-8a59-a792c165e4b4
4de3c2e6-253d-4f5b-b9fe-13af0be75acb
81fd79ab-40dd-4080-8b41-6f6d7654e754
a6e080d4-759a-4610-a1d9-8c9c591650c2
f91bd96b-4203-4e51-bd18-d1465401dd62
fb5e8630-fb9c-4173-9674-ddd48ef2bc78
797e4a9d-8e14-4272-b15e-59af6fd403b7
7e5c857e-4f6a-4e64-adb6-7f90d1b66e44
0c5f018c-08db-400d-853c-f37b05bd10bd
756e5875-7933-47c5-9edf-266658d67c87
b8fafabf-38e5-471b-93cb-4f38637b69fa
da68e757-b193-4436-b278-b552b24c9c3c
3842c6fc-3178-4731-89ed-8f7301cb267d
687dad0c-4d74-45b7-8777-98b5032f8f1c
b2028753-2688-42a7-bd07-34eb058f03f0
a26b0658-1001-4eae-a1ac-36ba60e822ac
86e0e7c2-ce97-4f4e-a4d8-2795e773efc5
8a8e7af7-a3bc-437b-9f4e-9995191b4757
689de0a7-4b00-4d83-93f2-c8d6057d9c35
7048a3d6-470d-41b0-8561-4e5f10389fbb
b952fe87-5059-4a1e-8e9c-834ac1a9b489
a9b70ab8-0aa3-4d5c-b6b2-c19b9b3e834f
3d87cd00-6fd8-43c5-8af6-9408d4f55a21
5ae04124-41d4-4705-a0bd-a24b785a91d3
d6a3744c-5ad2-48be-947e-83cb3547c4e9
09ddf0a5-23ef-4f7a-b6db-ffff0bf31097
105e98a8-25ad-4e00-bf98-c4dc5e16b8a2
1fbb607d-dfb1-4184-be08-d7789c37e9fc
4714dda7-3f52-42d7-9a67-aadc110e96f9
64cfe12c-2e37-4b2c-9979-2376861e3b7c
c27326d9-4122-4aa6-b9b9-c3880b343378
5988a098-72b9-4872-bf41-1785a57f0bc9
11ab49f2-6531-4703-8135-585f8369121a
b08eaa0f-b847-44e6-ab59-77e3fc708b08
df0dc930-0395-491f-94fa-3bf7c31b6445
b7ea2ad3-f156-4207-8b49-ca7229414e8c
4d098ebd-35de-4a88-b0e8-d303b20cc32c
fec71911-85f9-4247-badd-8b1e78cac458
77d2cc8b-219b-40bb-b2ce-f2d915abf1d5
f6c9c423-aa78-48ed-8d12-013c1964b5f7
1c9bcd6a-6ea9-44fb-b65c-0b4ca067e174
2433aae4-f529-4822-8c94-580e0ff94dc6
d0b22474-7a78-4662-9944-40f6f7ffa3de
5a832365-42a7-4f81-8720-a684449ddc66
550d33da-7cd0-47d7-bcb0-6667ec64cdba
82b850af-ea54-489d-903c-31d0e75ebf86
eb10703b-2f10-43f7-a23a-8d445bc50e78
200320f0-4777-4033-b6aa-cb4fa7a68e83
5333aea0-1b5b-4229-8522-d3c0000ac466
a2d9890f-fb7a-4901-9b79-92cf2338a412
41a5aab3-1332-4f66-bf44-2679bc787307
5dc34ab6-9a5f-43f3-811d-1a1a9bb8377c
aef9b42c-3e93-4da6-81a1-7f79181dbd27
7b6e764a-065a-4741-938a-d6fac35a9a5b
d5ec0b42-b67f-473c-80c7-48a1c9494e71
33a0a6c5-4b02-40f0-ac78-e3dee70833cf
4abf297e-1fdc-49c6-a381-4b6cd16278c4
50cda573-b4fd-470c-ab09-4f3c6a514dc0
637128ab-f3f3-4847-aaaa-eef30faa87b1
6405d5f8-b1f4-4fc5-8653-4a29eac5700c
12b739bf-dc79-4ef1-854c-1648fc97a89a
6eab5a97-356b-4c59-81c1-38697436328a
e1d30e53-17be-4b27-b4a6-3a6b9fa10e3d
58debe80-ee5f-47ce-946a-3a6543f89811
d3601b9b-8acb-4ca7-8683-b4a9f65b9e6a
196232a2-2a8d-4744-b824-7f71d2b7a85a
404b1a35-881e-4003-9297-424b271f956a
ca5520a0-822e-45f1-95e1-df11aebdf98a
5aa3176a-ce94-4b9b-b874-cc3547cc4f17
879a0554-0daa-443e-963d-3061729bd0e0
13e1b489-4868-406c-9320-04bed1362d4b
253e6b42-6b45-4411-a157-a50bf8657170
0032b928-e851-45ad-bbe4-68d391e27229
d3f62b9e-d26e-4e3d-8d46-2c935bb40b9f
ec3b25f8-b7ae-43d4-8045-12f921d5f2e5
2a422dbd-2964-418e-b86f-d5858c870cb5
3710070f-6b0c-44df-a181-d850debc737a
62903f23-3301-4525-8d67-284281db5b60
07815981-9c9b-4bc0-8002-8f488251251b
315a43bd-06eb-4ca5-b371-c7764ea8e760
655de4ed-24fc-46fa-9d9b-d5d29a2f178f
3b2f849b-6109-414d-b14c-b4250c3ede23
bcd1d275-5285-48cf-b04c-a16db1985dc5
f717acd6-cc25-450e-8e6d-c82d062eb0c1
824940ce-23ab-4a3d-91f9-5174143f3c77
d3c42d8a-eedd-45fd-9050-56db7da7f4e7
f4f56eeb-2ea7-45a2-afc2-1c81aa3aa357
92703dcc-0a97-4e75-9427-10eaa4d0cd7b
3cecb903-9fd8-4791-96e3-3c6cb4b219ee
51daa492-18c9-4cde-b984-e988fae44e10
7611a763-87bb-4768-a4e8-ccedec502645
7d682eac-10e7-4d26-b90c-232ce7073701
9cdcda9b-f6fb-4cba-b6e4-0c2328390375
c999add1-ecc0-4da4-8591-ccc6895927d2
cb36a6c6-2d38-4bb7-b7fb-239078a44ab7
920186d7-69de-495b-9edb-a7671969415e
bc184d05-26cb-464a-b717-b85caea977f1
211ed904-1858-43fe-a5f0-14a2d1bde2e5
55101edf-b7bc-4fb9-b9fe-2dea2ff7c44f
9b1cc28f-4495-4ece-927f-7c79898d8c71
74c28c42-4693-4947-8095-b1271b76526f
96247efe-4e92-4eab-a8b1-24459b79f1fe
be8ae120-6557-495e-bf4e-264515c0547c
0c97b796-91db-46ef-b974-1f05b14bc13d
69c996e6-0d97-4c6e-9f61-274791e5cae5
97cd8d54-cf33-4d79-8a4b-6c39223c3ec1
a655bbd4-a99c-4092-ba22-ce89263dec47
465e1d54-7ce4-4095-bd9c-ca715e70237d
94bb89e3-a405-4241-bd94-0d178beec384
96b1a7ef-22c6-4749-99b8-af192e751d1f
9852e818-272e-4074-a218-ce8709ae76d8
bf269522-74ce-4d42-97b3-6bdb4500024a
0f51ab5b-0a21-402a-b184-11df8607566b
9965bcda-1ef5-4f76-ac2f-5dbd73acf412
a8a5b613-f91d-4a52-a818-dd20262e8304
55a31d7b-6554-4a75-bb35-6d6b4354eb2d
6c429a76-7343-46db-a2aa-80e178dcfc27
858044f8-ab7f-4267-bee5-ab570eced536
ac3cc468-7e62-415b-ae55-53710fc08d08
de32a2e1-b48b-4d07-a2f8-efb427389b0f
55504c95-2816-4759-b30f-12b284c34c0c
afa67ab3-e3a3-4ccc-9bb9-7725ed99b0e2
bd2150b7-8a61-43bc-8f25-1e6324bb4784
785465df-9178-4b22-ae3b-2c617d3d8cc7
f69828c2-b580-440a-bee3-1be36b7815a9
995a0bbc-1740-49c8-bbb3-8d4ee140ed39
12d403d5-732b-4f7d-81ab-0a82030b1238
3908c60b-31e2-45fa-be05-196282b4e498
0b83bb83-5ffb-42d8-98ce-11a90f7b1b93
7b993997-921d-40be-a671-1cb9670c14d1
2fdb346c-66ec-4a72-8163-c150a4d60f08
82458fb9-427c-4e35-93d2-8f43bdc30078
929391c3-acf3-4036-9f5c-50f5c4274134
7460a862-b72c-4cb3-b6c3-07a5bb96664b
0814298a-1fff-4a95-a3ea-26442a79f165
7dd4641f-7d7e-4ae6-b889-a2a5608181ef
3d7dd680-fcbb-4913-b269-7067dcb4b367
fe3162ee-9ca7-4f5f-a855-110244204cf2
ab3e9a2f-1b56-40ba-bdc0-e889c99b9dca
0507eb43-c5d9-49c4-8dac-759755f8aa9f
28a932cf-807c-4c77-b0a4-ffeef0a62665
494f5da2-f56e-47a1-841b-6809da4cf94f
7e67afe0-a47b-40a0-96e0-53f9be64c88f
e5c26228-9f84-462d-aa41-31539527ecab
1e620a83-f4bb-4504-95f8-48121615d067
1fefe89d-6ea5-401f-946d-248fdea3b925
75d17f51-7285-43f1-8e1a-0960d485b2e1
886ae13d-9d1d-4244-8912-4815c4a8c637
3ad4f428-bd9f-43bc-b49a-0f0efcf1f7e9
b39a644c-6434-465e-9b11-473610102f69
49fe12c0-534e-45e0-be0f-e5a9350f0317
c3fe7e85-3c5d-4995-8b19-e5c7564667e9
a4a76d38-5514-443f-91ae-04e88844e1af
3d371cc4-9b33-44ff-923b-dd582778dde6
4fc7101f-1ae1-4268-b65c-95bd39f40275
41180aea-5ff3-4173-9430-819c9c5a89e6
9c64fa43-7ee6-47de-954f-859f1a2d0f1d
a08d9498-6ca7-498e-9fe5-2a2563b3de1f
4d8e5294-eca9-4553-9d45-760f061d0c11
55ef99d8-e7db-4a96-b7e2-f9ff81030973
c04698e9-0a17-425e-a0b8-f2b75983c8eb
cc4e7fb1-d097-4f13-9f89-02a9f3aaff79
1515c21e-587a-4ccc-ac49-42f7da7fd305
aa95e1d4-5a56-49ed-9f94-8065675bc411
35a953fd-0283-420f-aa58-70c80af02b1b
3a4fe3ea-8b19-4b83-bf63-4725f4a9c6f8
f6b9dc66-97fe-428e-9077-96fb174a8fd7
254086c8-0c05-402f-85e7-b6f0e7fd7c92
4b12fc9f-a040-4f26-bca8-b3c7c06adb54
9a1403ff-dd82-4c48-b8ca-e1a174f6de59
f894aa1b-b087-4022-a002-379a0e7de575
ba6cf7f1-0804-40c1-9d15-cb9f7e4fb22b
a0d214c6-80a3-48f5-8f23-699b6f1956da
d27bbc44-f6ee-4079-a5a5-505f78d45723
53a41428-d8f7-4020-97cc-13792e6994eb
a7618af2-aaa4-46cb-828a-aa8073c073de
6e659c45-78b1-43e1-9ca9-7a14af3573ec
1262ddc7-e9d0-4216-a8b2-94768c206014
34e3abf9-853c-4473-9e40-af367de82293
fe8347fc-6693-4e7a-8aa9-3b0e53a55883
77af1d3b-565e-4502-92f1-819d860d57d5
15a6068d-4141-441b-8d18-32931f403ab9
24d6102e-3767-42d5-85a1-d5c89f44379d
836eef98-3935-470f-b5ba-e440b30b70c6
e977e99e-1f09-4bdd-a517-211521dd2c5e
64daae04-4e0b-477d-b716-05c22edd7b58
9076ce01-5f24-4e40-94ca-f1be0b3e83cf
a4429062-c7ba-43e7-886f-99c777f1f765
6a1266ea-21a4-4ffd-9aad-c7d4f39f68f4
f732f239-8d8f-45f9-aa78-561a7212c2f2
e5e75a20-4b16-496a-be89-321878e37ac8
2b7625c4-be19-4cf0-9aeb-5a7fbe84021b
93f3d8db-d81d-4a6f-a188-e4ef0c413df8
a2fc2f12-120d-419d-bda2-ae2ff3c6800e
aa8ce28c-7997-4a1e-95d6-2241851a0051
0ab9651d-d007-483a-a812-097a274bd239
2bb21a07-bb8a-4372-b11e-d1f2e8a37981
786466cc-9a8d-47bd-86d1-ef60d65c3b66
add3ada9-d410-48e5-ba05-8a6cdeac7dd0
c3401fca-fea1-448c-9320-73cb99031cb1
cb4f19c2-05ed-470e-8995-7f869fe62864
d6047fd4-75c1-41ea-a998-03c57fcd9611
f7016b92-d618-4238-ae20-fa2d2e529a25
f807cbf1-7483-450a-afb2-0e8e7ad9f999
ffe4facd-0b93-4b79-8f6b-7f2fd51e96c2
06403b4f-8a21-477f-8f7e-8414064e7cb6
80524052-be92-4a30-ac4a-ac569f4b54f5
eccdde3e-f6ec-4f33-8f23-a269dc80b374
